\relax 
\citation{utexas}
\citation{oeis}
\citation{euler}
\citation{elliptic}
\citation{stack1}
\citation{stack2}
\citation{hilbert}
\citation{python}
\bibstyle{plain}
\bibdata{hw02}
\bibcite{utexas}{1}
\bibcite{stack2}{2}
\bibcite{stack1}{3}
\bibcite{oeis}{4}
\bibcite{elliptic}{5}
\bibcite{euler}{6}
\bibcite{python}{7}
\bibcite{hilbert}{8}
